Case #1: 4000000
Case #2: 0
Case #3: 2497996
Case #4: 24845944
Case #5: 53694579
Case #6: 50101864
Case #7: 201428
Case #8: 48666392
Case #9: 42865212
Case #10: 12174103
Case #11: 22163482
Case #12: 54974911
Case #13: 4878064
Case #14: 10694557
Case #15: 8892882
Case #16: 56184
Case #17: 12621029
Case #18: 198627
Case #19: 3377635
Case #20: 416433
Case #21: 354823
Case #22: 875752
Case #23: 21338110
Case #24: 31539163
Case #25: 75835592
Case #26: 35687742
Case #27: 0
Case #28: 53484860
Case #29: 0
Case #30: 17530484
Case #31: 39775629
Case #32: 0
Case #33: 0
Case #34: 0
Case #35: 0
Case #36: 0
Case #37: 0
Case #38: 0
Case #39: 0
Case #40: 0
Case #41: 0
Case #42: 0
Case #43: 0
Case #44: 0
Case #45: 0
Case #46: 3953
Case #47: 332
Case #48: 10598
Case #49: 0
Case #50: 0
Case #51: 0
Case #52: 880
Case #53: 1362
Case #54: 0
Case #55: 7581
Case #56: 3515
Case #57: 0
Case #58: 148680
Case #59: 0
Case #60: 0
Case #61: 0
Case #62: 5511
Case #63: 834
Case #64: 1386
Case #65: 84544
Case #66: 2550
Case #67: 0
Case #68: 15933
Case #69: 1903
Case #70: 70
Case #71: 0
Case #72: 1218
Case #73: 8748
Case #74: 3346
Case #75: 1068
Case #76: 4800
Case #77: 118
Case #78: 5541
Case #79: 4355
Case #80: 32
Case #81: 2082
Case #82: 2693
Case #83: 0
Case #84: 0
Case #85: 2980
Case #86: 115
Case #87: 1374
Case #88: 2763
Case #89: 1444
Case #90: 949
Case #91: 946
Case #92: 1355
Case #93: 509
Case #94: 5720
Case #95: 4802
Case #96: 0
Case #97: 681
Case #98: 0
Case #99: 1422
Case #100: 12000
