Case #1: 3
Case #2: 0
Case #3: IMPOSSIBLE
Case #4: 4
Case #5: IMPOSSIBLE
Case #6: IMPOSSIBLE
Case #7: 0
Case #8: IMPOSSIBLE
Case #9: IMPOSSIBLE
Case #10: IMPOSSIBLE
Case #11: IMPOSSIBLE
Case #12: 0
Case #13: 2
Case #14: 2
Case #15: 3
Case #16: 1
Case #17: 1
Case #18: IMPOSSIBLE
Case #19: IMPOSSIBLE
Case #20: 1
Case #21: 6
Case #22: 3
Case #23: 0
Case #24: 1
Case #25: 0
Case #26: IMPOSSIBLE
Case #27: IMPOSSIBLE
Case #28: IMPOSSIBLE
Case #29: 2
Case #30: 2
Case #31: 4
Case #32: 1
Case #33: 1
Case #34: IMPOSSIBLE
Case #35: 1
Case #36: IMPOSSIBLE
Case #37: 2
Case #38: IMPOSSIBLE
Case #39: IMPOSSIBLE
Case #40: IMPOSSIBLE
Case #41: 1
Case #42: 5
Case #43: 1
Case #44: 7
Case #45: 7
Case #46: 4
Case #47: 1
Case #48: IMPOSSIBLE
Case #49: 2
Case #50: IMPOSSIBLE
Case #51: 1
Case #52: 2
Case #53: 1
Case #54: IMPOSSIBLE
Case #55: IMPOSSIBLE
Case #56: IMPOSSIBLE
Case #57: IMPOSSIBLE
Case #58: IMPOSSIBLE
Case #59: 4
Case #60: IMPOSSIBLE
Case #61: 0
Case #62: 1
Case #63: 3
Case #64: 2
Case #65: 4
Case #66: 3
Case #67: IMPOSSIBLE
Case #68: 2
Case #69: IMPOSSIBLE
Case #70: 5
Case #71: IMPOSSIBLE
Case #72: 2
Case #73: 3
Case #74: 0
Case #75: IMPOSSIBLE
Case #76: 2
Case #77: 2
Case #78: IMPOSSIBLE
Case #79: IMPOSSIBLE
Case #80: IMPOSSIBLE
Case #81: IMPOSSIBLE
Case #82: IMPOSSIBLE
Case #83: IMPOSSIBLE
Case #84: 1
Case #85: IMPOSSIBLE
Case #86: 2
Case #87: IMPOSSIBLE
Case #88: IMPOSSIBLE
Case #89: IMPOSSIBLE
Case #90: IMPOSSIBLE
Case #91: IMPOSSIBLE
Case #92: IMPOSSIBLE
Case #93: 0
Case #94: IMPOSSIBLE
Case #95: 6
Case #96: IMPOSSIBLE
Case #97: 1
Case #98: 1
Case #99: 2
Case #100: IMPOSSIBLE
