Case #1: 3
Case #2: 2
Case #3: 3
Case #4: 7
Case #5: 6
Case #6: 8
Case #7: 7
Case #8: 5
Case #9: 7
Case #10: 4
Case #11: 5
Case #12: 7
Case #13: 7
Case #14: 2
Case #15: 7
Case #16: 5
Case #17: 3
Case #18: 5
Case #19: 1
Case #20: 7
Case #21: 7
Case #22: 7
Case #23: 5
Case #24: 9
Case #25: 5
Case #26: 9
Case #27: 8
Case #28: 6
Case #29: 8
Case #30: 9
Case #31: 5
Case #32: 4
Case #33: 6
Case #34: 6
Case #35: 8
Case #36: 4
Case #37: 8
Case #38: 6
Case #39: 6
Case #40: 8
Case #41: 5
Case #42: 9
Case #43: 8
Case #44: 5
Case #45: 4
Case #46: 5
Case #47: 5
Case #48: 6
Case #49: 6
Case #50: 4
Case #51: 5
Case #52: 7
Case #53: 8
Case #54: 4
Case #55: 5
Case #56: 7
Case #57: 6
Case #58: 5
Case #59: 7
Case #60: 8
Case #61: 5
Case #62: 6
Case #63: 8
Case #64: 4
Case #65: 5
Case #66: 5
Case #67: 5
Case #68: 8
Case #69: 9
Case #70: 3
Case #71: 6
Case #72: 8
Case #73: 7
Case #74: 4
Case #75: 8
Case #76: 7
Case #77: 7
Case #78: 5
Case #79: 5
Case #80: 5
Case #81: 8
Case #82: 5
Case #83: 3
Case #84: 6
Case #85: 6
Case #86: 8
Case #87: 4
Case #88: 3
Case #89: 7
Case #90: 7
Case #91: 5
Case #92: 6
Case #93: 7
Case #94: 5
Case #95: 5
Case #96: 6
Case #97: 5
Case #98: 7
Case #99: 4
Case #100: 5
